ESM 244: Advanced Data Analysis HW#1
…
#Filtering out female snowshow hares to only get the males for data analysis results  
snow_male <- snow_analysis %>%  
 filter(Sex!= "F")

snow_male

## # A tibble: 519 x 3
##    `Year of Study` Sex   `Weight of Hare (g)`
##              <dbl> <chr>                <dbl>
##  1            2008 M                     1280
##  2            2008 M                     1340
##  3            2008 M                      525
##  4            2008 M                     1550
##  5            2008 M                     1350
##  6            2008 M                       NA
##  7            2008 M                     1310
##  8            2008 M                     1290
##  9            2008 M                     1330
## 10            2008 M                     1470
## #  with 509 more rows

#Filtering out male snowshow hares to only get the females for data analysis results 
snow_female <- snow_analysis %>%  
 filter(Sex!= "M")

snow_female

## # A tibble: 560 x 3
##    `Year of Study` Sex   `Weight of Hare (g)`
##              <dbl> <chr>                <dbl>
##  1            2008 F                     1850
##  2            2008 F                     1960
##  3            2008 F                     1800
##  4            2008 F                     1730
##  5            2008 F                       NA
##  6            2008 F                     1710
##  7            2008 F                     1810
##  8            2008 F                      530
##  9            2008 F                      485
## 10            2008 F                     1550
## #  with 550 more rows
…
